{
    "@jupyterlab/apputils-extension:themes": {
        "theme": "JupyterLab Dark"
    },
    "@jupyterlab/shortcuts-extension:shortcuts": {
        "notebook:run-all-cells": {
            "command": "notebook:run-all-cells",
            "keys": [
                "Ctrl Shift Enter"
            ],
            "selector": ".jp-Notebook:focus"
        },   
        "notebook:run-all-above": {
            "command": "notebook:run-all-above",
            "keys": [
                "Ctrl Shift Up"
            ],
            "selector": ".jp-Notebook:focus"
        },
        "notebook:run-all-below": {
            "command": "notebook:run-all-below",
            "keys": [
                "Ctrl Shift Down"
            ],
            "selector": ".jp-Notebook:focus"
        },
    "@jupyterlab/docmanager-extension:plugin": {
        "autosaveInterval": 30000
    },
    "@jupyterlab/notebook-extension:tracker": {
        "codeCellConfig": {
            "fontFamily": "JetBrains Mono, Fira Code, Consolas, Monaco, monospace",
            "fontSize": 18,
            "lineNumbers": true
        },
        "markdownCellConfig": {
            "fontSize": 18,
            "lineNumbers": true
        },
        "rawCellConfig": {
            "fontSize": 18,
            "lineNumbers": true
        }
    },
    "@jupyterlab/fileeditor-extension:plugin": {
        "editorConfig": {
            "tabSize": 2,
            "insertSpaces": true
        }
    }
}
